%YAML 1.1
%TAG !u! tag:unity3d.com,2011:
--- !u!1001 &4258791650110622617
PrefabInstance:
  m_ObjectHideFlags: 0
  serializedVersion: 2
  m_Modification:
    m_TransformParent: {fileID: 0}
    m_Modifications:
    - target: {fileID: 100060, guid: 82e0045a1ecba05428d4189f14ad5cb1, type: 3}
      propertyPath: m_Name
      value: SKA_SmallEarthGolem_Run
      objectReference: {fileID: 0}
    - target: {fileID: 400060, guid: 82e0045a1ecba05428d4189f14ad5cb1, type: 3}
      propertyPath: m_LocalPosition.x
      value: -3.074
      objectReference: {fileID: 0}
    - target: {fileID: 400060, guid: 82e0045a1ecba05428d4189f14ad5cb1, type: 3}
      propertyPath: m_LocalPosition.y
      value: 1.72
      objectReference: {fileID: 0}
    - target: {fileID: 400060, guid: 82e0045a1ecba05428d4189f14ad5cb1, type: 3}
      propertyPath: m_LocalPosition.z
      value: -21.85
      objectReference: {fileID: 0}
    - target: {fileID: 400060, guid: 82e0045a1ecba05428d4189f14ad5cb1, type: 3}
      propertyPath: m_LocalRotation.x
      value: 0
      objectReference: {fileID: 0}
    - target: {fileID: 400060, guid: 82e0045a1ecba05428d4189f14ad5cb1, type: 3}
      propertyPath: m_LocalRotation.y
      value: 0
      objectReference: {fileID: 0}
    - target: {fileID: 400060, guid: 82e0045a1ecba05428d4189f14ad5cb1, type: 3}
      propertyPath: m_LocalRotation.z
      value: 0
      objectReference: {fileID: 0}
    - target: {fileID: 400060, guid: 82e0045a1ecba05428d4189f14ad5cb1, type: 3}
      propertyPath: m_LocalRotation.w
      value: 1
      objectReference: {fileID: 0}
    - target: {fileID: 400060, guid: 82e0045a1ecba05428d4189f14ad5cb1, type: 3}
      propertyPath: m_RootOrder
      value: 0
      objectReference: {fileID: 0}
    - target: {fileID: 400060, guid: 82e0045a1ecba05428d4189f14ad5cb1, type: 3}
      propertyPath: m_LocalEulerAnglesHint.x
      value: 0
      objectReference: {fileID: 0}
    - target: {fileID: 400060, guid: 82e0045a1ecba05428d4189f14ad5cb1, type: 3}
      propertyPath: m_LocalEulerAnglesHint.y
      value: 0
      objectReference: {fileID: 0}
    - target: {fileID: 400060, guid: 82e0045a1ecba05428d4189f14ad5cb1, type: 3}
      propertyPath: m_LocalEulerAnglesHint.z
      value: 0
      objectReference: {fileID: 0}
    - target: {fileID: 400098, guid: 82e0045a1ecba05428d4189f14ad5cb1, type: 3}
      propertyPath: m_LocalPosition.x
      value: 12.88
      objectReference: {fileID: 0}
    - target: {fileID: 400098, guid: 82e0045a1ecba05428d4189f14ad5cb1, type: 3}
      propertyPath: m_LocalPosition.z
      value: 1.91
      objectReference: {fileID: 0}
    - target: {fileID: 400098, guid: 82e0045a1ecba05428d4189f14ad5cb1, type: 3}
      propertyPath: m_LocalPosition.y
      value: 3.33
      objectReference: {fileID: 0}
    - target: {fileID: 13700020, guid: 82e0045a1ecba05428d4189f14ad5cb1, type: 3}
      propertyPath: m_Materials.Array.data[2]
      value: 
      objectReference: {fileID: 2100000, guid: 81ecf19559abccb4ba0cc560b8124a9c, type: 2}
    - target: {fileID: 13700020, guid: 82e0045a1ecba05428d4189f14ad5cb1, type: 3}
      propertyPath: m_Materials.Array.data[1]
      value: 
      objectReference: {fileID: 2100000, guid: 9cd7a18f0bdad824e83df4fe794ece6e, type: 2}
    - target: {fileID: 13700020, guid: 82e0045a1ecba05428d4189f14ad5cb1, type: 3}
      propertyPath: m_Materials.Array.data[0]
      value: 
      objectReference: {fileID: 2100000, guid: d8267b5f207393549ac9d74987f0d1e0, type: 2}
    m_RemovedComponents: []
  m_SourcePrefab: {fileID: 100100000, guid: 82e0045a1ecba05428d4189f14ad5cb1, type: 3}
