%YAML 1.1
%TAG !u! tag:unity3d.com,2011:
--- !u!21 &2100000
Material:
  serializedVersion: 6
  m_ObjectHideFlags: 0
  m_CorrespondingSourceObject: {fileID: 0}
  m_PrefabInstance: {fileID: 0}
  m_PrefabAsset: {fileID: 0}
  m_Name: ImpactFire
  m_Shader: {fileID: 4800000, guid: 6c488da468d373e49ba98d39e54f6250, type: 3}
  m_ShaderKeywords: 
  m_LightmapFlags: 4
  m_EnableInstancingVariants: 0
  m_DoubleSidedGI: 0
  m_CustomRenderQueue: -1
  stringTagMap: {}
  disabledShaderPasses: []
  m_SavedProperties:
    serializedVersion: 3
    m_TexEnvs:
    - Texture2D_8C4196B0:
        m_Texture: {fileID: 2800000, guid: 59314d1e187988240ac4c6b561e7e4fd, type: 3}
        m_Scale: {x: 1, y: 1}
        m_Offset: {x: 0, y: 0}
    - _SampleTexture2D_A0B25665_Texture:
        m_Texture: {fileID: 2800000, guid: b43d6c8e84596d54e9d287dc1df3ecb6, type: 3}
        m_Scale: {x: 1, y: 1}
        m_Offset: {x: 0, y: 0}
    - _SampleTexture2D_AE436D3B_Texture:
        m_Texture: {fileID: 2800000, guid: b43d6c8e84596d54e9d287dc1df3ecb6, type: 3}
        m_Scale: {x: 1, y: 1}
        m_Offset: {x: 0, y: 0}
    m_Floats:
    - Vector1_2945E47B: 0.1
    - Vector1_F0DE5FAF: 0.2
    m_Colors:
    - Color_47896AB2: {r: 2.433572, g: 0.39497763, b: 0, a: 0.5647059}
    - Color_A538F35A: {r: 5.278032, g: 2.597565, b: 0.3311706, a: 0.854902}
    - Color_A5C96AA7: {r: 1.1353015, g: 0.24370345, b: 0, a: 0.6509804}
    - Vector2_47724F3: {r: 0, g: -1, b: 0, a: 0}
    - Vector2_78F7F4D3: {r: 2, g: 1.5, b: 0, a: 0}
    - Vector2_B660C838: {r: 1, g: 0.5, b: 0, a: 0}
    - Vector2_FECA58AA: {r: 0, g: -1, b: 0, a: 0}
