%YAML 1.1
%TAG !u! tag:unity3d.com,2011:
--- !u!21 &2100000
Material:
  serializedVersion: 6
  m_ObjectHideFlags: 0
  m_CorrespondingSourceObject: {fileID: 0}
  m_PrefabInstance: {fileID: 0}
  m_PrefabAsset: {fileID: 0}
  m_Name: PlayerShrine
  m_Shader: {fileID: 4800000, guid: 0406db5a14f94604a8c57ccfbc9f3b46, type: 3}
  m_ShaderKeywords: _ALPHABLEND_ON _COLORCOLOR_ON _EMISSION _REQUIRE_UV2
  m_LightmapFlags: 0
  m_EnableInstancingVariants: 0
  m_DoubleSidedGI: 0
  m_CustomRenderQueue: 3000
  stringTagMap:
    RenderType: Transparent
  disabledShaderPasses:
  - ALWAYS
  m_SavedProperties:
    serializedVersion: 3
    m_TexEnvs:
    - _EmissionMap:
        m_Texture: {fileID: 0}
        m_Scale: {x: 1, y: 1}
        m_Offset: {x: 0, y: 0}
    - _MainTex:
        m_Texture: {fileID: 2800000, guid: f3a8c4a4e30ba444097a1b65ad67e599, type: 3}
        m_Scale: {x: 1, y: 1}
        m_Offset: {x: 0, y: 0}
    m_Floats:
    - _BlendOp: 0
    - _CameraFadingEnabled: 0
    - _CameraFarFadeDistance: 2
    - _CameraNearFadeDistance: 1
    - _ColorMode: 4
    - _Cull: 2
    - _Cutoff: 0.372
    - _DstBlend: 1
    - _EmissionEnabled: 1
    - _FlipbookMode: 1
    - _InvFade: 3
    - _LightingEnabled: 0
    - _Mode: 4
    - _SoftParticlesEnabled: 0
    - _SoftParticlesFarFadeDistance: 1
    - _SoftParticlesNearFadeDistance: 0
    - _SrcBlend: 5
    - _ZWrite: 0
    m_Colors:
    - _CameraFadeParams: {r: 0, g: Infinity, b: 0, a: 0}
    - _Color: {r: 0.5, g: 0.5, b: 0.5, a: 1}
    - _ColorAddSubDiff: {r: -1, g: 0, b: 0, a: 0}
    - _EmissionColor: {r: 0.627451, g: 0.26666668, b: 1.4980392, a: 1}
    - _SoftParticleFadeParams: {r: 0, g: 0, b: 0, a: 0}
    - _TintColor: {r: 1, g: 1, b: 1, a: 0.5}
