%YAML 1.1
%TAG !u! tag:unity3d.com,2011:
--- !u!1001 &5502676987626742416
PrefabInstance:
  m_ObjectHideFlags: 0
  serializedVersion: 2
  m_Modification:
    m_TransformParent: {fileID: 0}
    m_Modifications:
    - target: {fileID: 100096, guid: 773f1f31251d97641bd6349258f71e6f, type: 3}
      propertyPath: m_Name
      value: SKA_LargeFireGolem_Cast Variant
      objectReference: {fileID: 0}
    - target: {fileID: 400096, guid: 773f1f31251d97641bd6349258f71e6f, type: 3}
      propertyPath: m_LocalPosition.x
      value: -152.57993
      objectReference: {fileID: 0}
    - target: {fileID: 400096, guid: 773f1f31251d97641bd6349258f71e6f, type: 3}
      propertyPath: m_LocalPosition.y
      value: 1.8107071
      objectReference: {fileID: 0}
    - target: {fileID: 400096, guid: 773f1f31251d97641bd6349258f71e6f, type: 3}
      propertyPath: m_LocalPosition.z
      value: -114.866516
      objectReference: {fileID: 0}
    - target: {fileID: 400096, guid: 773f1f31251d97641bd6349258f71e6f, type: 3}
      propertyPath: m_LocalRotation.x
      value: 0
      objectReference: {fileID: 0}
    - target: {fileID: 400096, guid: 773f1f31251d97641bd6349258f71e6f, type: 3}
      propertyPath: m_LocalRotation.y
      value: 0
      objectReference: {fileID: 0}
    - target: {fileID: 400096, guid: 773f1f31251d97641bd6349258f71e6f, type: 3}
      propertyPath: m_LocalRotation.z
      value: 0
      objectReference: {fileID: 0}
    - target: {fileID: 400096, guid: 773f1f31251d97641bd6349258f71e6f, type: 3}
      propertyPath: m_LocalRotation.w
      value: 1
      objectReference: {fileID: 0}
    - target: {fileID: 400096, guid: 773f1f31251d97641bd6349258f71e6f, type: 3}
      propertyPath: m_RootOrder
      value: 0
      objectReference: {fileID: 0}
    - target: {fileID: 400096, guid: 773f1f31251d97641bd6349258f71e6f, type: 3}
      propertyPath: m_LocalEulerAnglesHint.x
      value: 0
      objectReference: {fileID: 0}
    - target: {fileID: 400096, guid: 773f1f31251d97641bd6349258f71e6f, type: 3}
      propertyPath: m_LocalEulerAnglesHint.y
      value: 0
      objectReference: {fileID: 0}
    - target: {fileID: 400096, guid: 773f1f31251d97641bd6349258f71e6f, type: 3}
      propertyPath: m_LocalEulerAnglesHint.z
      value: 0
      objectReference: {fileID: 0}
    - target: {fileID: 13700022, guid: 773f1f31251d97641bd6349258f71e6f, type: 3}
      propertyPath: m_Materials.Array.data[1]
      value: 
      objectReference: {fileID: 2100000, guid: f70db080d502ecb45bc8c16ceda740f2, type: 2}
    m_RemovedComponents: []
  m_SourcePrefab: {fileID: 100100000, guid: 773f1f31251d97641bd6349258f71e6f, type: 3}
