%YAML 1.1
%TAG !u! tag:unity3d.com,2011:
--- !u!114 &11400000
MonoBehaviour:
  m_ObjectHideFlags: 0
  m_CorrespondingSourceObject: {fileID: 0}
  m_PrefabInstance: {fileID: 0}
  m_PrefabAsset: {fileID: 0}
  m_GameObject: {fileID: 0}
  m_Enabled: 1
  m_EditorHideFlags: 0
  m_Script: {fileID: 11500000, guid: 712f8fc3c146c6040b05707408e70bdb, type: 3}
  m_Name: Fire Ball
  m_EditorClassIdentifier: 
  spellName: Fire Ball
  spellDescription: 
  spellElementType: 0
  spellSlotType: 0
  spellDuration: 1.5
  Loopable: 1
  manaCost: 10
  forceAlignWhenLooping: 1
  alignPlayerToCameraForwardStartTime: 0
  alignPlayerToCameraForwardEndTime: 1
  forceWalkWhenLooping: 0
  forceWalkStartTime: 0
  forceWalkEndTime: 0
  playerBodyIkWeight:
    serializedVersion: 2
    m_Curve:
    - serializedVersion: 3
      time: 0
      value: 0
      inSlope: 10
      outSlope: 10
      tangentMode: 34
      weightedMode: 0
      inWeight: 0
      outWeight: 0.33333334
    - serializedVersion: 3
      time: 0.1
      value: 1
      inSlope: 0
      outSlope: 0
      tangentMode: 0
      weightedMode: 0
      inWeight: 0.33333334
      outWeight: 0.33333334
    - serializedVersion: 3
      time: 1
      value: 0
      inSlope: -1.1111112
      outSlope: -1.1111112
      tangentMode: 34
      weightedMode: 0
      inWeight: 0.33333334
      outWeight: 0
    m_PreInfinity: 2
    m_PostInfinity: 2
    m_RotationOrder: 4
  projectile: {fileID: 5273702324382371402, guid: 5c103d568488a8d40a8c3979620489dd,
    type: 3}
  projectileCreationTime: 0.6
  useProjectileRootBone: 1
  projectileRootBone: 8
  projectileRootPositionOffset: {x: 0, y: 0.4, z: 0.5}
  projectileForward: 2
  projectileUp: 1
  animationTrigger: TestMagic
  animationTriggerActivationTimes: {x: 0, y: 0}
  spellEffects:
  - effectEnabled: 1
    effectObject: {fileID: 4138536615038813955, guid: 84b4f7175d78d9941a50e7e91fc1f3f1,
      type: 3}
    useRootBone: 1
    rootBone: 18
    rootBoneLocalOffset: {x: 0.15, y: -0.13, z: 0}
    rootBoneLocalRotation: {x: 0, y: 0, z: 0}
  - effectEnabled: 1
    effectObject: {fileID: 4138536615038813955, guid: 84b4f7175d78d9941a50e7e91fc1f3f1,
      type: 3}
    useRootBone: 1
    rootBone: 17
    rootBoneLocalOffset: {x: -0.15, y: -0.13, z: 0}
    rootBoneLocalRotation: {x: 0, y: 0, z: 0}
  - effectEnabled: 1
    effectObject: {fileID: 684439551940230027, guid: 3944e6bc4df31334a99aaa2ddf6bc573,
      type: 3}
    useRootBone: 1
    rootBone: 0
    rootBoneLocalOffset: {x: 0, y: 0.5, z: 0.5}
    rootBoneLocalRotation: {x: 0, y: 0, z: 0}
